…
# A tibble: 150 × 5
  Sepal.Length Sepal.Width Petal.Length Petal.Width Species
         <dbl>       <dbl>        <dbl>       <dbl>   <chr>
1          5.1         3.5          1.4         0.2  setosa
2          4.9         3.0          1.4         0.2  setosa
3          4.7         3.2          1.3         0.2  setosa
4          4.6         3.1          1.5         0.2  setosa
5          5.0         3.6          1.4         0.2  setosa
# ... with 145 more rows
Sepal.Length  Sepal.Width Petal.Length  Petal.Width      Species 
   "numeric"    "numeric"    "numeric"    "numeric"  "character" 
# A tibble: 150 × 5
  Sepal.Length Sepal.Width Petal.Length Petal.Width Species
         <dbl>       <dbl>        <dbl>       <dbl>   <chr>
1          4.3         3.0          1.1         0.1  setosa
2          4.4         2.9          1.4         0.2  setosa
3          4.4         3.0          1.3         0.2  setosa
4          4.4         3.2          1.3         0.2  setosa
5          4.5         2.3          1.3         0.3  setosa
# ... with 145 more rows
# A tibble: 150 × 5
  Sepal.Length Sepal.Width Petal.Length Petal.Width Species
         <dbl>       <dbl>        <dbl>       <dbl>   <chr>
1          4.3         3.0          1.1         0.1  setosa
2          4.4         3.2          1.3         0.2  setosa
3          4.4         3.0          1.3         0.2  setosa
4          4.4         2.9          1.4         0.2  setosa
5          4.5         2.3          1.3         0.3  setosa
# ... with 145 more rows
[1] 79
[1] 3

FALSE  TRUE 
  149     1 

FALSE  TRUE 
   35   115 
# A tibble: 149 × 5
  Sepal.Length Sepal.Width Petal.Length Petal.Width Species
         <dbl>       <dbl>        <dbl>       <dbl>   <chr>
1          4.3         3.0          1.1         0.1  setosa
2          4.4         3.2          1.3         0.2  setosa
3          4.4         3.0          1.3         0.2  setosa
4          4.4         2.9          1.4         0.2  setosa
5          4.5         2.3          1.3         0.3  setosa
# ... with 144 more rows
# A tibble: 35 × 1
  Sepal.Length
         <dbl>
1          4.3
2          4.4
3          4.5
4          4.6
5          4.7
# ... with 30 more rows
# A tibble: 117 × 2
  Sepal.Length Sepal.Width
         <dbl>       <dbl>
1          4.3         3.0
2          4.4         3.2
3          4.4         3.0
4          4.4         2.9
5          4.5         2.3
# ... with 112 more rows
…
         <dbl>       <dbl>        <dbl>       <dbl>   <chr>
1          4.3         3.0          1.1         0.1  setosa
2          4.4         3.2          1.3         0.2  setosa
3          4.4         3.0          1.3         0.2  setosa
4          4.4         2.9          1.4         0.2  setosa
5          4.5         2.3          1.3         0.3  setosa
# A tibble: 5 × 5
  Sepal.Length Sepal.Width Petal.Length Petal.Width   Species
         <dbl>       <dbl>        <dbl>       <dbl>     <chr>
1          7.7         3.8          6.7         2.2 virginica
2          7.7         3.0          6.1         2.3 virginica
3          7.7         2.8          6.7         2.0 virginica
4          7.7         2.6          6.9         2.3 virginica
5          7.9         3.8          6.4         2.0 virginica
# A tibble: 50 × 5
  Sepal.Length Sepal.Width Petal.Length Petal.Width Species
         <dbl>       <dbl>        <dbl>       <dbl>   <chr>
1          4.3         3.0          1.1         0.1  setosa
2          4.4         3.2          1.3         0.2  setosa
3          4.4         3.0          1.3         0.2  setosa
4          4.4         2.9          1.4         0.2  setosa
5          4.5         2.3          1.3         0.3  setosa
# ... with 45 more rows
# A tibble: 100 × 5
  Sepal.Length Sepal.Width Petal.Length Petal.Width    Species
         <dbl>       <dbl>        <dbl>       <dbl>      <chr>
1          4.9         2.5          4.5         1.7  virginica
2          4.9         2.4          3.3         1.0 versicolor
3          5.0         2.3          3.3         1.0 versicolor
4          5.0         2.0          3.5         1.0 versicolor
5          5.1         2.5          3.0         1.1 versicolor
# ... with 95 more rows
# A tibble: 22 × 5
  Sepal.Length Sepal.Width Petal.Length Petal.Width Species
         <dbl>       <dbl>        <dbl>       <dbl>   <chr>
1          4.3         3.0          1.1         0.1  setosa
2          4.4         3.2          1.3         0.2  setosa
3          4.4         3.0          1.3         0.2  setosa
4          4.4         2.9          1.4         0.2  setosa
5          4.5         2.3          1.3         0.3  setosa
# ... with 17 more rows
  Sepal.Length Sepal.Width Petal.Length Petal.Width    Species
1          4.6         3.4          1.4         0.3     setosa
2          4.5         2.3          1.3         0.3     setosa
3          4.8         3.0          1.4         0.3     setosa
4          4.9         2.4          3.3         1.0 versicolor
5          4.9         2.5          4.5         1.7  virginica
# A tibble: 149 × 5
  Sepal.Length Sepal.Width Petal.Length Petal.Width Species
         <dbl>       <dbl>        <dbl>       <dbl>   <chr>
1          4.3         3.0          1.1         0.1  setosa
2          4.4         3.2          1.3         0.2  setosa
3          4.4         3.0          1.3         0.2  setosa
4          4.4         2.9          1.4         0.2  setosa
5          4.5         2.3          1.3         0.3  setosa
# ... with 144 more rows
# A tibble: 4 × 5
  Sepal.Length Sepal.Width Petal.Length Petal.Width Species
         <dbl>       <dbl>        <dbl>       <dbl>   <chr>
1          4.3         3.0          1.1         0.1  setosa
2          4.4         3.2          1.3         0.2  setosa
3          4.4         3.0          1.3         0.2  setosa
4          4.4         2.9          1.4         0.2  setosa
# A tibble: 4 × 5
  Sepal.Length Sepal.Width Petal.Length Petal.Width Species
         <dbl>       <dbl>        <dbl>       <dbl>   <chr>
1          4.3         3.0          1.1         0.1  setosa
2          4.4         3.2          1.3         0.2  setosa
3          4.4         3.0          1.3         0.2  setosa
4          4.4         2.9          1.4         0.2  setosa
# A tibble: 146 × 5
  Sepal.Length Sepal.Width Petal.Length Petal.Width Species
         <dbl>       <dbl>        <dbl>       <dbl>   <chr>
1          4.5         2.3          1.3         0.3  setosa
2          4.6         3.6          1.0         0.2  setosa
3          4.6         3.4          1.4         0.3  setosa
4          4.6         3.2          1.4         0.2  setosa
5          4.6         3.1          1.5         0.2  setosa
# ... with 141 more rows
# A tibble: 1 × 5
  Sepal.Length Sepal.Width Petal.Length Petal.Width Species
         <dbl>       <dbl>        <dbl>       <dbl>   <chr>
1          4.3           3          1.1         0.1  setosa
# A tibble: 150 × 2
  Sepal.Length Sepal.Width
         <dbl>       <dbl>
1          4.3         3.0
2          4.4         3.2
3          4.4         3.0
4          4.4         2.9
5          4.5         2.3
# ... with 145 more rows
# A tibble: 150 × 1
  Sepal.Length
         <dbl>
1          4.3
2          4.4
3          4.4
4          4.4
5          4.5
# ... with 145 more rows
# A tibble: 150 × 3
  Sepal.Length Species Sepal.Width
         <dbl>   <chr>       <dbl>
1          4.3  setosa         3.0
2          4.4  setosa         3.2
3          4.4  setosa         3.0
4          4.4  setosa         2.9
5          4.5  setosa         2.3
# ... with 145 more rows
# A tibble: 150 × 2
  Sepal.Length Sepal.Width
         <dbl>       <dbl>
1          4.3         3.0
2          4.4         3.2
3          4.4         3.0
4          4.4         2.9
5          4.5         2.3
# ... with 145 more rows
# A tibble: 150 × 1
  Sepal.Length
         <dbl>
1          4.3
2          4.4
3          4.4
4          4.4
5          4.5
# ... with 145 more rows
# A tibble: 150 × 2
  Sepal.Length Sepal.Width
         <dbl>       <dbl>
1          4.3         3.0
2          4.4         3.2
3          4.4         3.0
4          4.4         2.9
5          4.5         2.3
# ... with 145 more rows
# A tibble: 150 × 2
  Sepal.Length Sepal.Width
         <dbl>       <dbl>
1          4.3         3.0
2          4.4         3.2
3          4.4         3.0
4          4.4         2.9
5          4.5         2.3
# ... with 145 more rows
# A tibble: 150 × 1
  Sepal.Length
         <dbl>
1          4.3
2          4.4
3          4.4
4          4.4
5          4.5
# ... with 145 more rows
[1] 4.3 4.4 4.4 4.4 4.5 4.6
[1] 4.3 4.4 4.4 4.4 4.5 4.6
# A tibble: 150 × 4
  Sepal.Width Petal.Length Petal.Width Species
        <dbl>        <dbl>       <dbl>   <chr>
1         3.0          1.1         0.1  setosa
2         3.2          1.3         0.2  setosa
3         3.0          1.3         0.2  setosa
4         2.9          1.4         0.2  setosa
5         2.3          1.3         0.3  setosa
# ... with 145 more rows
# A tibble: 150 × 4
  Sepal.Width Petal.Length Petal.Width Species
        <dbl>        <dbl>       <dbl>   <chr>
1         3.0          1.1         0.1  setosa
2         3.2          1.3         0.2  setosa
3         3.0          1.3         0.2  setosa
4         2.9          1.4         0.2  setosa
5         2.3          1.3         0.3  setosa
# ... with 145 more rows
# A tibble: 150 × 3
  Sepal.Width Petal.Length Species
        <dbl>        <dbl>   <chr>
1         3.0          1.1  setosa
2         3.2          1.3  setosa
3         3.0          1.3  setosa
4         2.9          1.4  setosa
5         2.3          1.3  setosa
# ... with 145 more rows
# A tibble: 150 × 4
  Sepal.Width Petal.Length Petal.Width Species
        <dbl>        <dbl>       <dbl>   <chr>
1         3.0          1.1         0.1  setosa
2         3.2          1.3         0.2  setosa
3         3.0          1.3         0.2  setosa
4         2.9          1.4         0.2  setosa
5         2.3          1.3         0.3  setosa
# ... with 145 more rows
# A tibble: 150 × 3
  Petal.Length Petal.Width Species
         <dbl>       <dbl>   <chr>
1          1.1         0.1  setosa
2          1.3         0.2  setosa
3          1.3         0.2  setosa
4          1.4         0.2  setosa
5          1.3         0.3  setosa
# ... with 145 more rows
# A tibble: 150 × 3
  Sepal.Length Sepal.Width Species
         <dbl>       <dbl>   <chr>
1          4.3         3.0  setosa
2          4.4         3.2  setosa
3          4.4         3.0  setosa
4          4.4         2.9  setosa
5          4.5         2.3  setosa
# ... with 145 more rows
# A tibble: 150 × 0
[1] "Sepal.Length" "Sepal.Width"  "Petal.Length" "Petal.Width" 
[5] "Species"     
[1] "Sepal.Length" "Sepal.Width"  "Petal.Length" "Petal.Width" 
[5] "Species"     
[1] "SepalLength"  "Sepal.Width"  "Petal.Length" "Petal.Width" 
[5] "Species"     
# A tibble: 150 × 5
  SepalLength Petal.Length Sepal.Width Petal.Width Species
        <dbl>        <dbl>       <dbl>       <dbl>   <chr>
1         4.3          1.1         3.0         0.1  setosa
2         4.4          1.3         3.2         0.2  setosa
3         4.4          1.3         3.0         0.2  setosa
4         4.4          1.4         2.9         0.2  setosa
5         4.5          1.3         2.3         0.3  setosa
# ... with 145 more rows
# A tibble: 150 × 5
  Species SepalLength Sepal.Width Petal.Length Petal.Width
    <chr>       <dbl>       <dbl>        <dbl>       <dbl>
1  setosa         4.3         3.0          1.1         0.1
2  setosa         4.4         3.2          1.3         0.2
3  setosa         4.4         3.0          1.3         0.2
4  setosa         4.4         2.9          1.4         0.2
5  setosa         4.5         2.3          1.3         0.3
# ... with 145 more rows
# A tibble: 150 × 5
  Species Sepal.Width SepalLength Petal.Length Petal.Width
    <chr>       <dbl>       <dbl>        <dbl>       <dbl>
1  setosa         3.0         4.3          1.1         0.1
2  setosa         3.2         4.4          1.3         0.2
3  setosa         3.0         4.4          1.3         0.2
4  setosa         2.9         4.4          1.4         0.2
5  setosa         2.3         4.5          1.3         0.3
# ... with 145 more rows
# A tibble: 150 × 8
  Sepal.Length Sepal.Width Petal.Length Petal.Width Species    V0
         <dbl>       <dbl>        <dbl>       <dbl>   <chr> <dbl>
1          5.1         3.5          1.4         0.2  setosa     0
2          4.9         3.0          1.4         0.2  setosa     0
3          4.7         3.2          1.3         0.2  setosa     0
4          4.6         3.1          1.5         0.2  setosa     0
5          5.0         3.6          1.4         0.2  setosa     0
# ... with 145 more rows, and 2 more variables: X1 <int>, X2 <int>
# A tibble: 150 × 6
  Sepal.Length Sepal.Width Petal.Length Petal.Width Species     V
         <dbl>       <dbl>        <dbl>       <dbl>   <chr> <dbl>
1          5.1         3.5          1.4         0.2  setosa  0.28
2          4.9         3.0          1.4         0.2  setosa  0.28
3          4.7         3.2          1.3         0.2  setosa  0.26
4          4.6         3.1          1.5         0.2  setosa  0.30
5          5.0         3.6          1.4         0.2  setosa  0.28
# ... with 145 more rows
…
       <chr> <dbl>
1     setosa   3.4
2 versicolor   2.8
3  virginica   3.0
# A tibble: 3 × 3
     Species    M1    M2
       <chr> <dbl> <dbl>
1     setosa   3.4  0.25
2 versicolor   2.8  1.33
3  virginica   3.0  2.03
# A tibble: 1 × 1
      r
  <dbl>
1 -0.76
Source: local data frame [150 x 8]
Groups: Species [3]

  Sepal.Length Sepal.Width Petal.Length Petal.Width Species     V
         <dbl>       <dbl>        <dbl>       <dbl>   <chr> <dbl>
1          5.1         3.5          1.4         0.2  setosa  0.28
2          4.9         3.0          1.4         0.2  setosa  0.28
3          4.7         3.2          1.3         0.2  setosa  0.26
4          4.6         3.1          1.5         0.2  setosa  0.30
5          5.0         3.6          1.4         0.2  setosa  0.28
# ... with 145 more rows, and 2 more variables: V2 <dbl>, MedPW <lgl>
…
  ID1 ID2.x X ID2.y Y
1   1     1 a     1 A
2   1     1 a     2 B
3   1     2 b     1 A
4   1     2 b     2 B
5   2     1 c     1 C
6   2     1 c     2 D
7   2     2 d     1 C
8   2     2 d     2 D
  ID1 ID2 X Y
1   1   1 a A
2   1   2 b B
3   2   1 c C
4   2   2 d D
# A tibble: 150 × 6
  Sepal.Length Sepal.Width Petal.Length Petal.Width Species    ID
         <dbl>       <dbl>        <dbl>       <dbl>   <chr> <int>
1          5.1         3.5          1.4         0.2  setosa     1
2          4.9         3.0          1.4         0.2  setosa     2
3          4.7         3.2          1.3         0.2  setosa     3
4          4.6         3.1          1.5         0.2  setosa     4
5          5.0         3.6          1.4         0.2  setosa     5
# ... with 145 more rows
# A tibble: 300 × 5
  Species    ID  Type Sepal Petal
*   <chr> <int> <int> <dbl> <dbl>
1  setosa     1     1   5.1   1.4
2  setosa     2     1   4.9   1.4
3  setosa     3     1   4.7   1.3
4  setosa     4     1   4.6   1.5
5  setosa     5     1   5.0   1.4
# ... with 295 more rows
# A tibble: 300 × 5
  Species    ID   Type Sepal Petal
    <chr> <int> <fctr> <dbl> <dbl>
1  setosa     1 Length   5.1   1.4
2  setosa     2 Length   4.9   1.4
3  setosa     3 Length   4.7   1.3
4  setosa     4 Length   4.6   1.5
5  setosa     5 Length   5.0   1.4
# ... with 295 more rows
# A tibble: 150 × 6
  Species    ID Sepal.Length Petal.Length Sepal.Width Petal.Width
*   <chr> <int>        <dbl>        <dbl>       <dbl>       <dbl>
1  setosa     1          5.1          1.4         3.5         0.2
2  setosa     2          4.9          1.4         3.0         0.2
3  setosa     3          4.7          1.3         3.2         0.2
4  setosa     4          4.6          1.5         3.1         0.2
5  setosa     5          5.0          1.4         3.6         0.2
# ... with 145 more rows
